{"paging":{"page":1,"total":78,"page_size":20,"pages":4},"loans":[{"id":749251,"name":"Anonymous","description":{"languages":["en"]},"status":"refunded","funded_amount":0,"image":{"id":726677,"template_id":1},"activity":"Beauty Salon","sector":"Services","use":"","location":{"country_code":"KE","country":"Kenya","geo":{"level":"country","pairs":"1 38","type":"point"}},"partner_id":133,"posted_date":"2014-08-09T18:10:02Z","planned_expiration_date":"2014-09-08T18:10:02Z","loan_amount":525,"borrower_count":1,"lender_count":19,"bonus_credit_eligibility":false,"tags":[{"name":"#Woman Owned Biz"},{"name":"#Repeat Borrower"}]},{"id":681913,"name":"Mushegh","description":{"languages":["en"]},"status":"funded","funded_amount":300,"image":{"id":1552642,"template_id":1},"activity":"Higher education costs","sector":"Education","themes":["Higher Education"],"use":"to pay for his son's university tuition.","location":{"country_code":"AM","country":"Armenia","town":"Norapat village, Armavir region","geo":{"level":"town","pairs":"40 45","type":"point"}},"partner_id":169,"posted_date":"2014-03-12T18:10:02Z","planned_expiration_date":"2014-04-11T18:10:02Z","loan_amount":300,"borrower_count":1,"lender_count":9,"currency_exchange_loss_amount":4.4,"bonus_credit_eligibility":true,"tags":[{"name":"volunteer_pick"},{"name":"volunteer_like"}]},{"id":680822,"name":"Taneice","description":{"languages":["en"]},"status":"funded","funded_amount":7975,"image":{"id":1550621,"template_id":1},"activity":"Beauty Salon","sector":"Services","use":"To pay for inventory, working capital, and other start-up expenses for her specialized salon.","location":{"country_code":"US","country":"United States","town":"Old Bridge","geo":{"level":"town","pairs":"39.76 -98.5","type":"point"}},"partner_id":316,"posted_date":"2014-03-09T23:40:03Z","planned_expiration_date":"2014-04-08T23:40:03Z","loan_amount":7975,"borrower_count":1,"lender_count":231,"bonus_credit_eligibility":false,"tags":[{"name":"user_favorite"},{"name":"#Woman Owned Biz"},{"name":"#Inspiring Story"},{"name":"#Unique"},{"name":"#Health and Sanitation"},{"name":"#Job Creator"},{"name":"#Low-profit FP"}]},{"id":677736,"name":"Mykola","description":{"languages":["ru","en"]},"status":"funded","funded_amount":3725,"image":{"id":1547019,"template_id":1},"activity":"Sporting Good Sales","sector":"Retail","use":"to purchase tourist equipment to rent it out to tourists.","location":{"country_code":"UA","country":"Ukraine","town":"Khoost","geo":{"level":"town","pairs":"49 32","type":"point"}},"partner_id":26,"posted_date":"2014-03-07T21:50:02Z","planned_expiration_date":"2014-04-06T21:50:01Z","loan_amount":3725,"borrower_count":1,"lender_count":128,"currency_exchange_loss_amount":1013.44,"bonus_credit_eligibility":false,"tags":[{"name":"user_favorite"},{"name":"#Tourism"},{"name":"#Eco-friendly"},{"name":"#Parent"},{"name":"#Unique"},{"name":"#Interesting Photo"},{"name":"#Repeat Borrower"}]},{"id":592967,"name":"Anonymous","description":{"languages":["en"]},"status":"funded","funded_amount":675,"image":{"id":726677,"template_id":1},"activity":"Primary\/secondary school costs","sector":"Education","themes":["Youth"],"use":"","location":{"country_code":"SO","country":"Somalia","geo":{"level":"country","pairs":"6 48","type":"point"}},"partner_id":312,"posted_date":"2013-08-09T18:00:02Z","planned_expiration_date":"2013-09-08T18:00:02Z","loan_amount":675,"borrower_count":1,"lender_count":23,"bonus_credit_eligibility":false,"tags":[]},{"id":571567,"name":"Vidal","description":{"languages":["es","en"]},"status":"expired","funded_amount":475,"image":{"id":1370499,"template_id":1},"activity":"Beauty Salon","sector":"Services","use":"to buy a computer.","location":{"country_code":"CO","country":"Colombia","town":"Medell\u00edn","geo":{"level":"town","pairs":"4 -72","type":"point"}},"partner_id":177,"posted_date":"2013-06-17T02:20:02Z","planned_expiration_date":"2013-07-17T02:20:02Z","loan_amount":800,"borrower_count":1,"lender_count":18,"bonus_credit_eligibility":true,"tags":[]},{"id":545607,"name":"Felimon","description":{"languages":["en"]},"status":"funded","funded_amount":1225,"image":{"id":1219562,"template_id":1},"activity":"Food Stall","sector":"Food","use":"to pay for more quantities of fish ball ingredients and other ingredients for dainties and sweet meats needed in his business.","location":{"country_code":"PH","country":"Philippines","town":"Silang, Cavite","geo":{"level":"town","pairs":"13 122","type":"point"}},"partner_id":144,"posted_date":"2013-04-08T02:10:02Z","planned_expiration_date":"2013-05-08T02:10:02Z","loan_amount":1225,"borrower_count":1,"lender_count":48,"bonus_credit_eligibility":true,"tags":[]},{"id":473205,"name":"Oscar","description":{"languages":["es","en"]},"status":"funded","funded_amount":1400,"image":{"id":1195973,"template_id":1},"activity":"Timber Sales","sector":"Construction","use":"to buy a chainsaw.","location":{"country_code":"CO","country":"Colombia","town":"El Carmen de Viboral","geo":{"level":"town","pairs":"4 -72","type":"point"}},"partner_id":177,"posted_date":"2012-10-01T18:30:02Z","planned_expiration_date":"2012-10-31T18:30:02Z","loan_amount":1400,"borrower_count":1,"lender_count":44,"bonus_credit_eligibility":false,"tags":[]},{"id":457661,"name":"Valeria Cecibel","description":{"languages":["es","en"]},"status":"funded","funded_amount":1700,"image":{"id":1158896,"template_id":1},"activity":"Retail","sector":"Retail","use":"To buy clothing, sport shoes, creams, perfumes, etc.","location":{"country_code":"EC","country":"Ecuador","town":"Manta","geo":{"level":"town","pairs":"-2 -77.5","type":"point"}},"partner_id":137,"posted_date":"2012-08-13T10:20:02Z","planned_expiration_date":"2012-09-12T10:20:02Z","loan_amount":1700,"borrower_count":1,"lender_count":59,"bonus_credit_eligibility":true,"tags":[]},{"id":365542,"name":"Martha Cecilia","description":{"languages":["es","en"]},"status":"funded","funded_amount":525,"image":{"id":933715,"template_id":1},"activity":"Food","sector":"Food","use":"to buy inventory and maintain her kiosk.","location":{"country_code":"CO","country":"Colombia","town":"San Jacinto-Bol\u00edvar","geo":{"level":"town","pairs":"4 -72","type":"point"}},"partner_id":154,"posted_date":"2011-12-02T06:10:06Z","loan_amount":525,"borrower_count":1,"lender_count":20,"bonus_credit_eligibility":true,"tags":[]},{"id":351610,"name":"Shawqi","description":{"languages":["en"]},"status":"funded","funded_amount":2000,"image":{"id":904917,"template_id":1},"activity":"Entertainment","sector":"Entertainment","use":"to purchase new sound system items.","location":{"country_code":"PS","country":"Palestine","geo":{"level":"country","pairs":"31.92157 35.203285","type":"point"}},"partner_id":80,"posted_date":"2011-11-06T01:30:03Z","loan_amount":2000,"borrower_count":1,"lender_count":77,"bonus_credit_eligibility":true,"tags":[]},{"id":325574,"name":"Johana De Jesus","description":{"languages":["es","en"]},"status":"funded","funded_amount":1075,"image":{"id":843536,"template_id":1},"activity":"Games","sector":"Entertainment","use":"to buy cables, consoles, discs and new games.","location":{"country_code":"NI","country":"Nicaragua","town":"Leon","geo":{"level":"town","pairs":"12.435556 -86.879444","type":"point"}},"partner_id":96,"posted_date":"2011-08-15T17:00:07Z","loan_amount":1075,"borrower_count":1,"lender_count":42,"bonus_credit_eligibility":false,"tags":[]},{"id":310780,"name":"Stanely Gitonga","description":{"languages":["en"]},"status":"funded","funded_amount":525,"image":{"id":799345,"template_id":1},"activity":"Dairy","sector":"Agriculture","use":"To purchase and insure a dairy cow.","location":{"country_code":"KE","country":"Kenya","town":"Nkubu","geo":{"level":"town","pairs":"1 38","type":"point"}},"partner_id":156,"posted_date":"2011-06-25T19:10:05Z","loan_amount":525,"borrower_count":1,"lender_count":16,"bonus_credit_eligibility":false,"tags":[]},{"id":264850,"name":"John Gitonga","description":{"languages":["en"]},"status":"funded","funded_amount":150,"image":{"id":690030,"template_id":1},"activity":"Transportation","sector":"Transportation","use":"to repair his vehicle.","location":{"country_code":"KE","country":"Kenya","town":"Bamburi, Mombasa","geo":{"level":"town","pairs":"1 38","type":"point"}},"partner_id":133,"posted_date":"2011-02-01T08:00:16Z","loan_amount":150,"borrower_count":1,"lender_count":6,"bonus_credit_eligibility":false,"tags":[]},{"id":268639,"name":"Regina","description":{"languages":["en"]},"status":"funded","funded_amount":950,"image":{"id":700548,"template_id":1},"activity":"Clothing Sales","sector":"Clothing","themes":["Conflict Zones"],"use":"To buy additional clothing materials.","location":{"country_code":"SL","country":"Sierra Leone","town":"Bo","geo":{"level":"town","pairs":"8.5 -11.5","type":"point"}},"partner_id":148,"posted_date":"2011-01-27T05:20:06Z","loan_amount":950,"borrower_count":1,"lender_count":36,"bonus_credit_eligibility":false,"tags":[]},{"id":260532,"name":"Ana Maria","description":{"languages":["es","en"]},"status":"funded","funded_amount":1000,"image":{"id":674167,"template_id":1},"activity":"Beauty Salon","sector":"Services","use":"The member is requesting the loan to invest in the purchase of merchandise for her beauty salon.","location":{"country_code":"PE","country":"Peru","town":"Cusco","geo":{"level":"town","pairs":"-10 -76","type":"point"}},"partner_id":119,"posted_date":"2010-12-22T17:30:15Z","loan_amount":1000,"borrower_count":1,"lender_count":32,"bonus_credit_eligibility":true,"tags":[]},{"id":260537,"name":"Innocent","description":{"languages":["en"]},"status":"funded","funded_amount":850,"image":{"id":674180,"template_id":1},"activity":"Cement","sector":"Construction","use":"to buy more cement for sale.","location":{"country_code":"RW","country":"Rwanda","geo":{"level":"country","pairs":"-2 30","type":"point"}},"partner_id":161,"posted_date":"2010-12-22T17:00:17Z","loan_amount":850,"borrower_count":1,"lender_count":28,"bonus_credit_eligibility":false,"tags":[]},{"id":257239,"name":"Alexi Auxiliadora","description":{"languages":["es","en"]},"status":"funded","funded_amount":1100,"image":{"id":663138,"template_id":1},"activity":"General Store","sector":"Retail","use":"To buy rice, sugar, tuna, detergent, and bazaar items like clothes and shoes.","location":{"country_code":"EC","country":"Ecuador","town":"Portoviejo","geo":{"level":"town","pairs":"-2 -77.5","type":"point"}},"partner_id":137,"posted_date":"2010-12-13T15:00:08Z","loan_amount":1100,"borrower_count":1,"lender_count":43,"bonus_credit_eligibility":true,"tags":[]},{"id":249136,"name":"Hazron","description":{"languages":["en"]},"status":"funded","funded_amount":750,"image":{"id":642506,"template_id":1},"activity":"Clothing Sales","sector":"Clothing","use":"To buy African design fabric called Kitenge, children\u2019s clothes and bed covers.","location":{"country_code":"KE","country":"Kenya","town":"Jogoo Road","geo":{"level":"town","pairs":"1 38","type":"point"}},"partner_id":142,"posted_date":"2010-11-18T05:30:09Z","loan_amount":750,"borrower_count":1,"lender_count":21,"currency_exchange_loss_amount":2.14,"bonus_credit_eligibility":false,"tags":[]},{"id":219259,"name":"Leonard","description":{"languages":["en"]},"status":"funded","funded_amount":1000,"image":{"id":575538,"template_id":1},"activity":"General Store","sector":"Retail","use":"To buy cooking fat, mattresses, rice and sugar.","location":{"country_code":"KE","country":"Kenya","town":"Nairobi Central","geo":{"level":"town","pairs":"1 38","type":"point"}},"partner_id":142,"posted_date":"2010-07-29T23:40:02Z","loan_amount":1000,"borrower_count":1,"lender_count":34,"bonus_credit_eligibility":false,"tags":[]}]}